Capítulo7 Visualização | Introdução à Ciência de Dados em R
…
Se você rodou o comando, notou que o ggplot2 possui mais de 1000 funcionalidades! Mas, apesar da complexidade que este pacote carrega, suas ferramentas básicas são fáceis de serem assimiladas. A seguir, daremos os primeiros passos para construir os principais gráficos em ggplot2, para que, posteriormente, o leitor possa explorar com propriedade estas vastas funcionalidades presentes no pacote.

Nos exemplos a seguir, utilizaremos alguns bancos de dados que podem ser baixados clicando aqui.

7.1 Gráfico de Dispersão

O primeiro gráfico que construiremos será o de dispersão. Esse tipo de gráfico é muito útil para determinar a tendência dos dados, seja linear ou não-linear, principalmente tratando de duas variáveis contínuas. Além disso, permite identificar observações atípicas. Para tanto, utilizaremos dados de alunos da disciplina Estatística Aplicada, presentes no arquivo dados_alunos.csv.

library(readr)

dados_alunos <- read_csv("dados_ggplot2/dados_alunos.csv")

dados_alunos

# A tibble: 64 x 7
   sexo  idade altura  peso horas_estudo media_ponderada futuro   
   <chr> <dbl>  <dbl> <dbl>        <dbl>           <dbl> <chr>    
 1 M        23   1.75    80            2             7.5 academico
 2 F        19   1.67    65            2             8.3 mercado  
 3 M        19   1.7     90            3             6.9 mercado  
 4 M        22   1.73    87            3             7.1 academico
 5 M        19   1.83    71            2             6.5 mercado  
 6 M        19   1.8     80            3             8.6 mercado  
 7 M        20   1.9     90            2             7.8 academico
 8 F        20   1.6     55            1             8   mercado  
 9 F        24   1.62    55            2             8.2 academico
10 F        18   1.64    60            2             7.3 mercado  
# ... with 54 more rows
…
Note que a estrutura da função geom_text() é quase idêntica para as três posições, apenas alterando alguns valores e especificações. Primeiramente, definimos na função aes() a variável utilizada para ilustrar as legendas, no caso, a Valor. Em seguida, definimos a cor da legenda, sendo definida como branca (color = "white"). O argumento vjust = ajusta o posicionamento vertical das legendas, tendo como referência cada uma das barras; nesse caso, faça os ajustes testando valores, sendo possível atribuir valores negativos, fazendo com que a legenda suba. Por fim, a função position_, contida no argumento position =, ajusta o posicionamento das legendas em cada um dos setores da barra, de acordo com o tipo de posição adotada no geom_col(), seja o stack (position_stack()), dodge (position_dodge()) ou fill (position_fill()).

geom_bar()

A função geom_bar() constrói gráficos de barras a partir da contagem de valores presentes em uma variável categórica. Como exemplo, utilizaremos a base de dados diamonds, presente no prórprio pacote ggplot2.

diamonds

# A tibble: 53,940 x 10
   carat cut       color clarity depth table price     x     y     z
   <dbl> <ord>     <ord> <ord>   <dbl> <dbl> <int> <dbl> <dbl> <dbl>
 1  0.23 Ideal     E     SI2      61.5    55   326  3.95  3.98  2.43
 2  0.21 Premium   E     SI1      59.8    61   326  3.89  3.84  2.31
 3  0.23 Good      E     VS1      56.9    65   327  4.05  4.07  2.31
 4  0.29 Premium   I     VS2      62.4    58   334  4.2   4.23  2.63
 5  0.31 Good      J     SI2      63.3    58   335  4.34  4.35  2.75
 6  0.24 Very Good J     VVS2     62.8    57   336  3.94  3.96  2.48
 7  0.24 Very Good I     VVS1     62.3    57   336  3.95  3.98  2.47
 8  0.26 Very Good H     SI1      61.9    55   337  4.07  4.11  2.53
 9  0.22 Fair      E     VS2      65.1    61   337  3.87  3.78  2.49
10  0.23 Very Good H     VS1      59.4    61   338  4     4.05  2.39
# ... with 53,930 more rows
…
7.4 Gráfico de Linhas

Os gráficos de linhas são muito utilizados para representar séries temporais, ou seja, a progressão de valores ao longo do tempo. Utilizamos a função geom_line() para construí-los. Para exemplificação, utilizaremos os dados de produtividade de milho entre 1961 e 2019, disponíveis no arquivo produtiv_milho.csv.

library(readr)
produtiv_milho <- read_csv("dados_ggplot2/produtiv_milho.csv")

produtiv_milho

# A tibble: 236 x 3
   Local    Ano Valor
   <chr>  <dbl> <dbl>
 1 Brasil  1961  1.31
 2 Brasil  1962  1.30
 3 Brasil  1963  1.31
 4 Brasil  1964  1.16
 5 Brasil  1965  1.38
 6 Brasil  1966  1.31
 7 Brasil  1967  1.38
 8 Brasil  1968  1.34
 9 Brasil  1969  1.31
10 Brasil  1970  1.44
# ... with 226 more rows

A base de dados apresenta 236 observações e 3 variáveis. A variável Local possui os países Brasil, China, Índia e Estado Unidos; a Ano dispõe de dados entre 1961 e 2019; e Valor representa a produtividade da cultura do milho, em toneladas por hectare.

Para o primeiro exemplo, utilizaremos apenas os dados referentes ao Brasil. Para isso, utilizaremos a função dplyr::filter, do pacote dplyr.

produtiv_br <- produtiv_milho %>% 
  filter(Local == "Brasil")

produtiv_br

# A tibble: 59 x 3
   Local    Ano Valor
   <chr>  <dbl> <dbl>
 1 Brasil  1961  1.31
 2 Brasil  1962  1.30
 3 Brasil  1963  1.31
 4 Brasil  1964  1.16
 5 Brasil  1965  1.38
 6 Brasil  1966  1.31
 7 Brasil  1967  1.38
 8 Brasil  1968  1.34
 9 Brasil  1969  1.31
10 Brasil  1970  1.44
# ... with 49 more rows
…
7.5 Gráficos de medidas-resumo

Voltemos aos dados dos alunos de Estatística Aplicada para fazermos alguns gráficos de medidas-resumo, importantes para observarmos a distribuição de valores.

dados_alunos

# A tibble: 64 x 7
   sexo  idade altura  peso horas_estudo media_ponderada futuro   
   <chr> <dbl>  <dbl> <dbl>        <dbl>           <dbl> <chr>    
 1 M        23   1.75    80            2             7.5 academico
 2 F        19   1.67    65            2             8.3 mercado  
 3 M        19   1.7     90            3             6.9 mercado  
 4 M        22   1.73    87            3             7.1 academico
 5 M        19   1.83    71            2             6.5 mercado  
 6 M        19   1.8     80            3             8.6 mercado  
 7 M        20   1.9     90            2             7.8 academico
 8 F        20   1.6     55            1             8   mercado  
 9 F        24   1.62    55            2             8.2 academico
10 F        18   1.64    60            2             7.3 mercado  
# ... with 54 more rows
…
