Capítulo5 Organização | Introdução à Ciência de Dados em R
…
5.1 Tibbles

Nesta seção, veremos o que são as tibbles e suas funcionalidades. No capítulo 4 vimos que o pacote readr apresenta funções que convertem diretamente os arquivos importados para o formato tibble. Isso se deve ao fato de que os pacotes presentes no tidyverse utilizam como padrão esse formato, ao invés do formato tradicional de data frame. Porém, a maioria dos outros pacotes que não estão no tidyverse ainda utilizam o formato de data frame.

Tibbles nada mais são do que uma versão mais atualizada dos data frames, apresentando ajustes importantes que facilitam o trabalho do cientista de dados. Dessa forma, os conceitos que vimos nas seções 3.8 e 3.13.1 são válidos para as tibbles. Elas fazem parte do pacote tibble, assim, devemos carregar o seu pacote.

library(tibble)

5.1.1 Criando Tibbles

Para converter data frames em tibbles, utilizamos a função as_tibble(). Como exemplo, transformaremos a base de dados nativa do R iris para o formato tibble.

as_tibble(iris)

# A tibble: 150 x 5
   Sepal.Length Sepal.Width Petal.Length Petal.Width Species
          <dbl>       <dbl>        <dbl>       <dbl> <fct>  
 1          5.1         3.5          1.4         0.2 setosa 
 2          4.9         3            1.4         0.2 setosa 
 3          4.7         3.2          1.3         0.2 setosa 
 4          4.6         3.1          1.5         0.2 setosa 
 5          5           3.6          1.4         0.2 setosa 
 6          5.4         3.9          1.7         0.4 setosa 
 7          4.6         3.4          1.4         0.3 setosa 
 8          5           3.4          1.5         0.2 setosa 
 9          4.4         2.9          1.4         0.2 setosa 
10          4.9         3.1          1.5         0.1 setosa 
# ... with 140 more rows
…
