Capítulo6 Transformação | Introdução à Ciência de Dados em R
…
Para verificar todas as funcionalidades presentes no pacote, rode o seguinte comando:

ls("package:dplyr")

6.1 Pacote dplyr

O pacote dplyr possui ferramentas simples, porém muito importantes para realizar as devidas transformações na base de dados. A seguir, apresentaremos as principais funções do pacote, que nos permitem resolver a maioria dos problemas relacionados à etapa de transformação dos dados.

A base de dados utilizada para os exemplos é referente à produção de milho, soja, trigo e arroz, nos países da América do Sul, entre 1961 e 2019, obtidos da FAOSTAT. Para fazer o download dos dados, clique aqui.

graos <- read_csv("dados_transf/prod_graos.csv")

graos

# A tibble: 5,510 × 14
   Domain Cod…¹ Domain Area …² Area  Eleme…³ Element Item …⁴ Item  Year …⁵  Year
   <chr>        <chr>    <dbl> <chr>   <dbl> <chr>     <dbl> <chr>   <dbl> <dbl>
 1 QCL          Crops…       9 Arge…    5312 Area h…      56 Maize    1961  1961
 2 QCL          Crops…       9 Arge…    5312 Area h…      56 Maize    1962  1962
 3 QCL          Crops…       9 Arge…    5312 Area h…      56 Maize    1963  1963
 4 QCL          Crops…       9 Arge…    5312 Area h…      56 Maize    1964  1964
 5 QCL          Crops…       9 Arge…    5312 Area h…      56 Maize    1965  1965
 6 QCL          Crops…       9 Arge…    5312 Area h…      56 Maize    1966  1966
 7 QCL          Crops…       9 Arge…    5312 Area h…      56 Maize    1967  1967
 8 QCL          Crops…       9 Arge…    5312 Area h…      56 Maize    1968  1968
 9 QCL          Crops…       9 Arge…    5312 Area h…      56 Maize    1969  1969
10 QCL          Crops…       9 Arge…    5312 Area h…      56 Maize    1970  1970
# … with 5,500 more rows, 4 more variables: Unit <chr>, Value <dbl>,
#   Flag <chr>, `Flag Description` <chr>, and abbreviated variable names
#   ¹​`Domain Code`, ²​`Area Code (FAO)`, ³​`Element Code`, ⁴​`Item Code (FAO)`,
#   ⁵​`Year Code`

O banco de dados possui 5510 observações e 14 variáveis. Como podemos observar, muitas das variáveis são referentes à códigos de identificação, os quais não nos interessam para a realização das análises. Assim, a seguir, veremos como selecionar somente as variáveis de interesse.

6.1.1 Selecionar

Para selecionar colunas, utilizamos a função select(), tendo como primeiro argumento a base de dados utilizada, sendo os demais argumentos referentes aos nomes das colunas que se deseja selecionar.

Nos dois exemplos a seguir, perceba que podemos selecionar uma ou mais de uma coluna.

# Selecionando somente a coluna "Item"
select(graos,
       Item)

# A tibble: 5,510 × 1
   Item 
   <chr>
 1 Maize
 2 Maize
 3 Maize
 4 Maize
 5 Maize
 6 Maize
 7 Maize
 8 Maize
 9 Maize
10 Maize
# … with 5,500 more rows

# Selecionando mais de uma coluna
select(graos,
       Area, Item, Value)

# A tibble: 5,510 × 3
   Area      Item    Value
   <chr>     <chr>   <dbl>
 1 Argentina Maize 2744400
 2 Argentina Maize 2756670
 3 Argentina Maize 2645400
 4 Argentina Maize 2970500
 5 Argentina Maize 3062300
 6 Argentina Maize 3274500
 7 Argentina Maize 3450500
 8 Argentina Maize 3377700
 9 Argentina Maize 3556000
10 Argentina Maize 4017330
# … with 5,500 more rows

Podemos selecionar várias colunas consecutivas com o operador :. Basta informar os nomes ou as posições da primeira e da última coluna que se deseja selecionar.

# Selecionando colunas consecutivas a partir dos nomes
select(graos,
       Area:Year)

# A tibble: 5,510 × 7
   Area      `Element Code` Element        `Item Code (FAO)` Item  Year …¹  Year
   <chr>              <dbl> <chr>                      <dbl> <chr>   <dbl> <dbl>
 1 Argentina           5312 Area harvested                56 Maize    1961  1961
 2 Argentina           5312 Area harvested                56 Maize    1962  1962
 3 Argentina           5312 Area harvested                56 Maize    1963  1963
 4 Argentina           5312 Area harvested                56 Maize    1964  1964
 5 Argentina           5312 Area harvested                56 Maize    1965  1965
 6 Argentina           5312 Area harvested                56 Maize    1966  1966
 7 Argentina           5312 Area harvested                56 Maize    1967  1967
 8 Argentina           5312 Area harvested                56 Maize    1968  1968
 9 Argentina           5312 Area harvested                56 Maize    1969  1969
10 Argentina           5312 Area harvested                56 Maize    1970  1970
# … with 5,500 more rows, and abbreviated variable name ¹​`Year Code`

# Selecionando colunas consecutivas a partir das posições
select(graos, 4:10)

# A tibble: 5,510 × 7
   Area      `Element Code` Element        `Item Code (FAO)` Item  Year …¹  Year
   <chr>              <dbl> <chr>                      <dbl> <chr>   <dbl> <dbl>
 1 Argentina           5312 Area harvested                56 Maize    1961  1961
 2 Argentina           5312 Area harvested                56 Maize    1962  1962
 3 Argentina           5312 Area harvested                56 Maize    1963  1963
 4 Argentina           5312 Area harvested                56 Maize    1964  1964
 5 Argentina           5312 Area harvested                56 Maize    1965  1965
 6 Argentina           5312 Area harvested                56 Maize    1966  1966
 7 Argentina           5312 Area harvested                56 Maize    1967  1967
 8 Argentina           5312 Area harvested                56 Maize    1968  1968
 9 Argentina           5312 Area harvested                56 Maize    1969  1969
10 Argentina           5312 Area harvested                56 Maize    1970  1970
# … with 5,500 more rows, and abbreviated variable name ¹​`Year Code`

A função select() possui outras funções que auxiliam na seleção de colunas, sendo elas:

starts_with(): seleciona colunas que começam com um texto padrão;

ends_with(): seleciona colunas que terminam com um texto padrão;

contains(): seleciona colunas que possuem um texto padrão.

# starts_with() - Começa com tal palavra
select(graos, starts_with("Year"))

# A tibble: 5,510 × 2
   `Year Code`  Year
         <dbl> <dbl>
 1        1961  1961
 2        1962  1962
 3        1963  1963
 4        1964  1964
 5        1965  1965
 6        1966  1966
 7        1967  1967
 8        1968  1968
 9        1969  1969
10        1970  1970
# … with 5,500 more rows

# ends_with() - Termina com tal palavra
select(graos, ends_with("Code"))

# A tibble: 5,510 × 3
   `Domain Code` `Element Code` `Year Code`
   <chr>                  <dbl>       <dbl>
 1 QCL                     5312        1961
 2 QCL                     5312        1962
 3 QCL                     5312        1963
 4 QCL                     5312        1964
 5 QCL                     5312        1965
 6 QCL                     5312        1966
 7 QCL                     5312        1967
 8 QCL                     5312        1968
 9 QCL                     5312        1969
10 QCL                     5312        1970
# … with 5,500 more rows

# contains() - Contém tal palavra
select(graos, contains("FAO"))

# A tibble: 5,510 × 2
   `Area Code (FAO)` `Item Code (FAO)`
               <dbl>             <dbl>
 1                 9                56
 2                 9                56
 3                 9                56
 4                 9                56
 5                 9                56
 6                 9                56
 7                 9                56
 8                 9                56
 9                 9                56
10                 9                56
# … with 5,500 more rows
Também podemos retirar uma coluna inserindo um sinal de menos (-) antes do nome da variável ou das funções auxiliares.

# Nome das colunas do banco de dados bruto:
names(graos)

 [1] "Domain Code"      "Domain"           "Area Code (FAO)"  "Area"            
 [5] "Element Code"     "Element"          "Item Code (FAO)"  "Item"            
 [9] "Year Code"        "Year"             "Unit"             "Value"           
[13] "Flag"             "Flag Description"

# Dados sem as respectivas colunas:
select(graos,
       -contains("Code"), -contains("Flag"), -Domain)

# A tibble: 5,510 × 6
   Area      Element        Item   Year Unit    Value
   <chr>     <chr>          <chr> <dbl> <chr>   <dbl>
 1 Argentina Area harvested Maize  1961 ha    2744400
 2 Argentina Area harvested Maize  1962 ha    2756670
 3 Argentina Area harvested Maize  1963 ha    2645400
 4 Argentina Area harvested Maize  1964 ha    2970500
 5 Argentina Area harvested Maize  1965 ha    3062300
 6 Argentina Area harvested Maize  1966 ha    3274500
 7 Argentina Area harvested Maize  1967 ha    3450500
 8 Argentina Area harvested Maize  1968 ha    3377700
 9 Argentina Area harvested Maize  1969 ha    3556000
10 Argentina Area harvested Maize  1970 ha    4017330
# … with 5,500 more rows

Por último, temos a função everything(), utilizada na função select() para arrastar determinadas colunas para o início da base de dados.

select(graos, 
       Value, Unit, everything())

# A tibble: 5,510 × 14
     Value Unit  Domain Cod…¹ Domain Area …² Area  Eleme…³ Element Item …⁴ Item 
     <dbl> <chr> <chr>        <chr>    <dbl> <chr>   <dbl> <chr>     <dbl> <chr>
 1 2744400 ha    QCL          Crops…       9 Arge…    5312 Area h…      56 Maize
 2 2756670 ha    QCL          Crops…       9 Arge…    5312 Area h…      56 Maize
 3 2645400 ha    QCL          Crops…       9 Arge…    5312 Area h…      56 Maize
 4 2970500 ha    QCL          Crops…       9 Arge…    5312 Area h…      56 Maize
 5 3062300 ha    QCL          Crops…       9 Arge…    5312 Area h…      56 Maize
 6 3274500 ha    QCL          Crops…       9 Arge…    5312 Area h…      56 Maize
 7 3450500 ha    QCL          Crops…       9 Arge…    5312 Area h…      56 Maize
 8 3377700 ha    QCL          Crops…       9 Arge…    5312 Area h…      56 Maize
 9 3556000 ha    QCL          Crops…       9 Arge…    5312 Area h…      56 Maize
10 4017330 ha    QCL          Crops…       9 Arge…    5312 Area h…      56 Maize
# … with 5,500 more rows, 4 more variables: `Year Code` <dbl>, Year <dbl>,
#   Flag <chr>, `Flag Description` <chr>, and abbreviated variable names
#   ¹​`Domain Code`, ²​`Area Code (FAO)`, ³​`Element Code`, ⁴​`Item Code (FAO)`
…
Utilizando o pipe, evitamos de escrever funções dentro de funções, ordenando-as de acordo com a ordem em que desejamos realizar as operações. No exemplo, calculamos primeiro a média das notas e, posteriormente, arrendondamos.

Quando utilizamos o pipe, obtemos um código mais legível, claro e compacto, principalmente quando trabalhamos com diversas funções. Isso facilita não somente a leitura, mas também na manutenção do código, caso seja preciso realizar alterações ou consertar possíveis problemas.

Tendo essa noção básica do que é o pipe, começaremos a aplicá-lo na manipulação dos dados. Caso queira saber mais sobre o pipe, confira o capítulo 18 do livro R for Data Science.

6.1.3 Filtrar

Podemos filtrar determinados valores que estão contidos nas linhas de cada coluna, sejam eles quantitativos ou categóricos. Para isso, utilizamos testes lógicos dentro da função filter().

filter(graos,
       Area == "Chile")

# A tibble: 459 × 14
   Domain Cod…¹ Domain Area …² Area  Eleme…³ Element Item …⁴ Item  Year …⁵  Year
   <chr>        <chr>    <dbl> <chr>   <dbl> <chr>     <dbl> <chr>   <dbl> <dbl>
 1 QCL          Crops…      40 Chile    5312 Area h…      56 Maize    1961  1961
 2 QCL          Crops…      40 Chile    5312 Area h…      56 Maize    1962  1962
 3 QCL          Crops…      40 Chile    5312 Area h…      56 Maize    1963  1963
 4 QCL          Crops…      40 Chile    5312 Area h…      56 Maize    1964  1964
 5 QCL          Crops…      40 Chile    5312 Area h…      56 Maize    1965  1965
 6 QCL          Crops…      40 Chile    5312 Area h…      56 Maize    1966  1966
 7 QCL          Crops…      40 Chile    5312 Area h…      56 Maize    1967  1967
 8 QCL          Crops…      40 Chile    5312 Area h…      56 Maize    1968  1968
 9 QCL          Crops…      40 Chile    5312 Area h…      56 Maize    1969  1969
10 QCL          Crops…      40 Chile    5312 Area h…      56 Maize    1970  1970
# … with 449 more rows, 4 more variables: Unit <chr>, Value <dbl>, Flag <chr>,
#   `Flag Description` <chr>, and abbreviated variable names ¹​`Domain Code`,
#   ²​`Area Code (FAO)`, ³​`Element Code`, ⁴​`Item Code (FAO)`, ⁵​`Year Code`
…
 [1] "Bolivia (Plurinational State of)"   "Colombia"                          
 [3] "Ecuador"                            "French Guyana"                     
 [5] "Guyana"                             "Paraguay"                          
 [7] "Peru"                               "Suriname"                          
 [9] "Uruguay"                            "Venezuela (Bolivarian Republic of)"

Da mesma forma, podemos aplicar os filtros para variáveis quantitativas. Note no exemplo a seguir que aplicamos 3 filtros. O primeiro referente à variável categórica Element, sendo os outros dois, às variáveis quantitativas Year e Value.

filter(graos,
       Element == "Production",
       Year > 2010,
       Value > 10^7)

# A tibble: 54 × 14
   Domain Cod…¹ Domain Area …² Area  Eleme…³ Element Item …⁴ Item  Year …⁵  Year
   <chr>        <chr>    <dbl> <chr>   <dbl> <chr>     <dbl> <chr>   <dbl> <dbl>
 1 QCL          Crops…       9 Arge…    5510 Produc…      56 Maize    2011  2011
 2 QCL          Crops…       9 Arge…    5510 Produc…      56 Maize    2012  2012
 3 QCL          Crops…       9 Arge…    5510 Produc…      56 Maize    2013  2013
 4 QCL          Crops…       9 Arge…    5510 Produc…      56 Maize    2014  2014
 5 QCL          Crops…       9 Arge…    5510 Produc…      56 Maize    2015  2015
 6 QCL          Crops…       9 Arge…    5510 Produc…      56 Maize    2016  2016
 7 QCL          Crops…       9 Arge…    5510 Produc…      56 Maize    2017  2017
 8 QCL          Crops…       9 Arge…    5510 Produc…      56 Maize    2018  2018
 9 QCL          Crops…       9 Arge…    5510 Produc…      56 Maize    2019  2019
10 QCL          Crops…       9 Arge…    5510 Produc…     236 Soyb…    2011  2011
# … with 44 more rows, 4 more variables: Unit <chr>, Value <dbl>, Flag <chr>,
#   `Flag Description` <chr>, and abbreviated variable names ¹​`Domain Code`,
#   ²​`Area Code (FAO)`, ³​`Element Code`, ⁴​`Item Code (FAO)`, ⁵​`Year Code`

Para melhorar a organização e a apresentação da base de dados, podemos aplicar as funções filter() e select() juntas. Para tanto, utilizaremos o pipe para mesclar ambas as funções em uma pipeline.

graos %>% 
  filter(Element == "Production",
         Area %in% c("Brazil", "Argentina"),
         Year > 2010) %>% 
  select(Area, Element, Item, Year, Unit, Value)

# A tibble: 72 × 6
   Area      Element    Item         Year Unit      Value
   <chr>     <chr>      <chr>       <dbl> <chr>     <dbl>
 1 Argentina Production Maize        2011 tonnes 23799830
 2 Argentina Production Maize        2012 tonnes 21196637
 3 Argentina Production Maize        2013 tonnes 32119211
 4 Argentina Production Maize        2014 tonnes 33087165
 5 Argentina Production Maize        2015 tonnes 33817744
 6 Argentina Production Maize        2016 tonnes 39792854
 7 Argentina Production Maize        2017 tonnes 49475895
 8 Argentina Production Maize        2018 tonnes 43462323
 9 Argentina Production Maize        2019 tonnes 56860704
10 Argentina Production Rice, paddy  2011 tonnes  1748075
# … with 62 more rows
…
No exemplo acima, perceba que filtramos as colunas Area e Element, mas não às selecionamos posteriormente. Caso fosse realizada a seleção antes da filtragem, não seria possível filtrar as devidas variáveis, uma vez que não selecionamos suas colunas para, posteriormente, serem filtradas.

6.1.4 Modificar e criar colunas

Para modificar ou criar novas colunas, utilizamos a função mutate(). No exemplo a seguir, transformaremos os valores de produção, em toneladas, para quilogramas.

graos %>% 
  filter(Element == "Production") %>% 
  select(Area, Element, Item, Year, Value) %>% 
  mutate(Value = Value*1000)

# A tibble: 2,756 × 5
   Area      Element    Item   Year      Value
   <chr>     <chr>      <chr> <dbl>      <dbl>
 1 Argentina Production Maize  1961 4850000000
 2 Argentina Production Maize  1962 5220000000
 3 Argentina Production Maize  1963 4360000000
 4 Argentina Production Maize  1964 5350000000
 5 Argentina Production Maize  1965 5140000000
 6 Argentina Production Maize  1966 7040000000
 7 Argentina Production Maize  1967 8510000000
 8 Argentina Production Maize  1968 6560000000
 9 Argentina Production Maize  1969 6860000000
10 Argentina Production Maize  1970 9360000000
# … with 2,746 more rows

No código acima, transformamos os valores da coluna Value. Contudo, também podemos manter a coluna original e criar uma nova coluna com a variável calculada. Basta designar um novo nome à coluna, nesse caso, criamos a Value(kg).

graos %>% 
  filter(Element == "Production") %>% 
  select(Area, Element, Item, Year, Value) %>% 
  mutate(Value_kg = Value*1000)

# A tibble: 2,756 × 6
   Area      Element    Item   Year   Value   Value_kg
   <chr>     <chr>      <chr> <dbl>   <dbl>      <dbl>
 1 Argentina Production Maize  1961 4850000 4850000000
 2 Argentina Production Maize  1962 5220000 5220000000
 3 Argentina Production Maize  1963 4360000 4360000000
 4 Argentina Production Maize  1964 5350000 5350000000
 5 Argentina Production Maize  1965 5140000 5140000000
 6 Argentina Production Maize  1966 7040000 7040000000
 7 Argentina Production Maize  1967 8510000 8510000000
 8 Argentina Production Maize  1968 6560000 6560000000
 9 Argentina Production Maize  1969 6860000 6860000000
10 Argentina Production Maize  1970 9360000 9360000000
# … with 2,746 more rows

Podemos realizar qualquer operação com a quantidade de colunas que desejarmos. Porém, deve ser retornado um vetor com comprimento igual à quantidade de linhas da base de dados ou com comprimento igual a 1, sendo assim realizado o processo de reciclagem do valor.

graos %>% 
  filter(Element == "Production") %>% 
  select(Area, Element, Item, Year, Value) %>% 
  mutate(Value = Value*1000,
         Unit = "kg")

# A tibble: 2,756 × 6
   Area      Element    Item   Year      Value Unit 
   <chr>     <chr>      <chr> <dbl>      <dbl> <chr>
 1 Argentina Production Maize  1961 4850000000 kg   
 2 Argentina Production Maize  1962 5220000000 kg   
 3 Argentina Production Maize  1963 4360000000 kg   
 4 Argentina Production Maize  1964 5350000000 kg   
 5 Argentina Production Maize  1965 5140000000 kg   
 6 Argentina Production Maize  1966 7040000000 kg   
 7 Argentina Production Maize  1967 8510000000 kg   
 8 Argentina Production Maize  1968 6560000000 kg   
 9 Argentina Production Maize  1969 6860000000 kg   
10 Argentina Production Maize  1970 9360000000 kg   
# … with 2,746 more rows
…
